mxFDA Object • mxfda
…
Running this code will calculate univariate Ripley’s K function to
measure spatial clustering of immune cells for each sample, and will
store these spatial summary functions in the
univariate_summaries slot of the mxFDAobject.
To access this slot and view the extracted summary functions, type:

mxFDAobject@univariate_summaries$Kest
#> # A tibble: 24,847 × 5
#>    patientImage_id     r sumfun    csr fundiff
#>    <chr>           <dbl>  <dbl>  <dbl>   <dbl>
#>  1 2_1                 0      0   0       0   
#>  2 2_1                 1      0   3.14   -3.14
#>  3 2_1                 2      0  12.6   -12.6 
#>  4 2_1                 3      0  28.3   -28.3 
#>  5 2_1                 4      0  50.3   -50.3 
#>  6 2_1                 5      0  78.5   -78.5 
#>  7 2_1                 6      0 113.   -113.  
#>  8 2_1                 7      0 154.   -154.  
#>  9 2_1                 8      0 201.   -201.  
#> 10 2_1                 9      0 254.   -254.  
#> # ℹ 24,837 more rows
…
